{
  "project_info": {
    "project_number": "567229876905",
    "firebase_url": "https://bitpage-f0072.firebaseio.com",
    "project_id": "bitpage-f0072",
    "storage_bucket": "bitpage-f0072.appspot.com"
  },
  "client": [
    {
      "client_info": {
        "mobilesdk_app_id": "1:567229876905:android:489bdbb426e0ece1",
        "android_client_info": {
          "package_name": "com.bitpage.com"
        }
      },
      "oauth_client": [
        {
          "client_id": "567229876905-kemtnkt0thv1pcecgjadsllq3c2ppj22.apps.googleusercontent.com",
          "client_type": 1,
          "android_info": {
            "package_name": "com.bitpage.com",
            "certificate_hash": "92dfe1802a455de4fb11c0ef97b2c0e02b2086d9"
          }
        },
        {
          "client_id": "567229876905-cvi93b6n0eurl136obop19remnp5us69.apps.googleusercontent.com",
          "client_type": 3
        }
      ],
      "api_key": [
        {
          "current_key": "AIzaSyC2Na7mAaXi0Vu7QhIN_rtZ9d8WZlVCIqc"
        }
      ],
      "services": {
        "analytics_service": {
          "status": 1
        },
        "appinvite_service": {
          "status": 2,
          "other_platform_oauth_client": [
            {
              "client_id": "567229876905-cvi93b6n0eurl136obop19remnp5us69.apps.googleusercontent.com",
              "client_type": 3
            }
          ]
        },
        "ads_service": {
          "status": 2
        }
      }
    }
  ],
  "configuration_version": "1"
}